{
  "produtos": [
    {
      "titulo": "Mandioca",
      "preco": "300.00",
      "descricao": "Mandioca 100% orgânica, saudemos!",
      "categoria": "Compra",
      "idPessoa": "2",
      "tipoPessoa": "juridica",
      "id": 1
    }
  ],
  "servicos": [
    {
      "titulo": "Animação de festas",
      "preco": "A combinar",
      "descricao": "Animo festas infantis",
      "categoria": "Prestação",
      "idPessoa": "1",
      "tipoPessoa": "fisica",
      "id": 1
    },
    {
      "titulo": "Consultoria de investimentos",
      "preco": "A combinar",
      "descricao": "Quer ficar rico?\nInvista conosco",
      "categoria": "Prestação",
      "idPessoa": "6",
      "tipoPessoa": "juridica",
      "id": 2
    },
    {
      "titulo": "Engenheiros",
      "preco": "A combinar",
      "descricao": "Contratando engenheiros para obra",
      "categoria": "Contratação",
      "idPessoa": "4",
      "tipoPessoa": "juridica",
      "id": 3
    }
  ],
  "fisicas": [
    {
      "nome": "Bozo",
      "dataNascimento": "1986-09-28",
      "cpf": "12321321321312313",
      "email": "bozo@email.com",
      "senha": "bozo1234",
      "id": 1
    }
  ],
  "juridicas": [
    {
      "nome": "Horta da Fruta",
      "cnpj": "123456",
      "cep": "213213213123",
      "complemento": "sala 32",
      "numero": "321",
      "nome_representante": "Alberto",
      "email": "hortadafruta@contato.com",
      "senha": "hortadafruta1",
      "id": 1
    },
    {
      "nome": "Assentamento Pablo Neruda",
      "cnpj": "1234",
      "cep": "2312321312",
      "complemento": "sala 3014",
      "numero": "321",
      "nome_representante": "João",
      "email": "pabloneruda@contato.com",
      "senha": "mandioca123",
      "id": 2
    },
    {
      "nome": "Electric Dream",
      "cnpj": "1231231",
      "cep": "213213129312",
      "complemento": "predio",
      "numero": "1321321",
      "nome_representante": "Wallace",
      "email": "electricdream@contact.com",
      "senha": "electricdream123",
      "id": 3
    },
    {
      "nome": "Souza e Silva",
      "cnpj": "3213213",
      "cep": "3123213213",
      "complemento": "saal 3201",
      "numero": "12312312",
      "nome_representante": "Souza",
      "email": "souzasilva@contato.com",
      "senha": "souzasilva123",
      "id": 4
    },
    {
      "nome": "Salão da Cláudia",
      "cnpj": "1231231",
      "cep": "1231231231",
      "complemento": "sala 2313123",
      "numero": "123123",
      "nome_representante": "Cláudia",
      "email": "salaoclaudia@contato.com",
      "senha": "claudia123",
      "id": 5
    },
    {
      "nome": "Betina Bank",
      "cnpj": "1231231231231",
      "cep": "22261110",
      "complemento": "1231231231",
      "numero": "12313",
      "nome_representante": "Betina",
      "email": "betinabank@contato.com",
      "senha": "betina1milhao",
      "id": 6
    }
  ]
}